"ACER","6131-40300",""
"ACOUSTIC SOLUTIONS","6290-43380",""
"ACOUSTIC SOLUTIONS (VESTEL)","6290-43380",""
"ADVENT","",""
"AEG","6131-40300",""
"AIWA","6268-43380",""
"AKAI","",""
"AKURA","6131-40300",""
"ALBA","6131-40300",""
"ALBA (VESTEL)","",""
"AQUAVISION","6131-40300",""
"ATEC","",""
"AUDIO SONIC","",""
"B & O","6131-40300",""
"BAIRD","6131-40300",""
"BANG & OLUFSEN","6131-40300",""
"BAUMATIC","6131-40300",""
"BEKO","6131-40300",""
"BENQ","6131-40300",""
"BLACK DIAMOND","",""
"BOSCH","6131-40300",""
"BOSE","",""
"BUSH","6131-40300",""
"BUSH (VESTEL)","6131-40300",""
"CANON","6131-40300",""
"CASIO","",""
"CDA","6131-40300",""
"CELLO","6131-40300",""
"COMPAQ","",""
"COOLPOINT","6131-40300",""
"CREDA","6131-40300",""
"DAEWOO","6131-40300",""
"DECCA","6131-40300",""
"DEDIETRICH","6131-40300",""
"DELL","",""
"DELONGHI","6131-40300",""
"DENON","6131-40300",""
"DIGIHOME","6131-40300",""
"DIPLOMAT","6131-40300",""
"DM TECH","6131-40300",""
"ERAE","6131-40300",""
"ESCIENT","6131-40300",""
"EVESHAM","",""
"EVOTEL","6131-40300",""
"FOEHN & HIRSH","",""
"FRIGIDAIRE","",""
"FUNAI","6131-40300",""
"GOODMANS","6131-40300",""
"GRUNDIG","6131-40300",""
"HANNSPREE","6131-40300",""
"HARMAN KARDON","6131-40300",""
"HAWKSPREE","6131-40300",""
"HAYWA","6131-40300",""
"HDA","6131-40300",""
"HENRY","",""
"HINARI","",""
"HITACHI","6253-43380",""
"HOTPOINT","6131-40300",""
"HUMAX","6131-40300",""
"HYGENA","6131-40300",""
"HYUNDAI","6131-40300",""
"IMC GROUP","6131-40300",""
"INDESIT","6131-40300",""
"ITT","6131-40300",""
"JAMO","6131-40300",""
"JMB","6131-40300",""
"JOHN LEWIS","6131-40300",""
"JVC","6269-43380",""
"KENWOOD","6278-43380",""
"LCD DIGITAL","6131-40300",""
"LEC","6131-40300",""
"LEXOR","6131-40300",""
"LG","6131-40300",""
"LINSAR","6131-40300",""
"LOEWE","6131-40300",""
"LOGIK","6131-40300",""
"MARANTZ","6131-40300",""
"MATSUI","6131-40300",""
"MIELE","6131-40300",""
"MIKOMI","6131-40300",""
"MORDAUNT SHORT","6131-40300",""
"MURPHY","",""
"NEC","",""
"NEFF","6131-40300",""
"NEON","6131-40300",""
"NEW WORLD","6131-40300",""
"NORMENDE","6131-40300",""
"ONKYO","6131-40300",""
"ONN","6131-40300",""
"OPTOMA","",""
"OPUS","6131-40300",""
"ORION","6131-40300",""
"PACKARD BELL","",""
"PANASONIC","6273-43380",""
"PANASONIC PROFESSIONAL PDP","6273-43380",""
"PARKINSON COWAN","6131-40300",""
"PHILIPS","6131-40300",2439349
"PIONEER","6277-43380",""
"POLOROID","6131-40300",""
"PRIMA","6131-40300",""
"PROLINE","6131-40300",""
"RANGEMASTER","6131-40300",""
"RED","6131-40300",""
"SAGEM","6131-40300",""
"SAMSUNG","6131-40300",""
"SANYO","6251-43380",""
"SCHNEIDER","6131-40300",""
"SERVIS","6131-40300",""
"SHARP","6281-43380",""
"SKY","6131-40300",""
"SONY","6264-43380",""
"SOUNDWAVE","6131-40300",""
"STERLING","6131-40300",""
"STOVES","6131-40300",""
"TATUNG","6131-40300",""
"TEAC","6131-40300",""
"TECHNICS","6273-43380",""
"TECHNIKA","6131-40300",""
"TECHNOSONIC","6131-40300",""
"TECHWOOD","6131-40300",""
"TECHWOOD (VESTEL)","6131-40300",""
"TEVION","6131-40300",""
"THOMSON","6276-43380",""
"TOSHIBA","6257-43380",""
"TRICITY BENDIX","6131-40300",""
"TV AERIAL","6131-40300",""
"UMC","6131-40300",""
"VIEWSONIC","6131-40300",""
"WHARFEDALE","6290-43380",""
"WHARFEDALE (VESTEL)","6290-43380",""
"WHIRLPOOL","",""
"YAMAHA","6131-40300",""
"ZANUSSI","6131-40300",""
"ZOTHERS","","");